"china","crash","hiHatClosed","hiHatOpen","kick","rideBell","rideBow","snare","tomHigh","tomLow"
"china",99,1,0,0,0,0,0,0,0,0
"crash",0,100,0,0,0,0,0,0,0,0
"hiHatClosed",0,0,85,15,0,0,0,0,0,0
"hiHatOpen",1,6,0,93,0,0,0,0,0,0
"kick",0,0,0,0,80,1,0,0,0,19
"rideBell",0,2,0,0,0,69,29,0,0,0
"rideBow",0,0,0,0,0,1,99,0,0,0
"snare",0,1,0,0,0,0,0,99,0,0
"tomHigh",0,0,0,0,0,0,0,13,87,0
"tomLow",0,13,0,0,8,1,0,0,3,75
"china","crash","hiHatClosed","hiHatOpen","kick","rideBell","rideBow","snare","tomHigh","tomLow"
"china",99,1,0,0,0,0,0,0,0,0
"crash",0,100,0,0,0,0,0,0,0,0
"hiHatClosed",0,0,85,15,0,0,0,0,0,0
"hiHatOpen",1,6,0,93,0,0,0,0,0,0
"kick",0,0,0,0,80,1,0,0,0,19
"rideBell",0,2,0,0,0,69,29,0,0,0
"rideBow",0,0,0,0,0,1,99,0,0,0
"snare",0,1,0,0,0,0,0,99,0,0
"tomHigh",0,0,0,0,0,0,0,13,87,0
"tomLow",0,13,0,0,8,1,0,0,3,75
,china,crash,hiHatClosed,hiHatOpen,kick,rideBell,rideBow,snare,tomHigh,tomLow
china,99,1,0,0,0,0,0,0,0,0
crash,0,100,0,0,0,0,0,0,0,0
hiHatClosed,0,0,85,15,0,0,0,0,0,0
hiHatOpen,1,6,0,93,0,0,0,0,0,0
kick,0,0,0,0,80,1,0,0,0,19
rideBell,0,2,0,0,0,69,29,0,0,0
rideBow,0,0,0,0,0,1,99,0,0,0
snare,0,1,0,0,0,0,0,99,0,0
tomHigh,0,0,0,0,0,0,0,13,87,0
tomLow,0,13,0,0,8,1,0,0,3,75
,china,crash,hiHatClosed,hiHatOpen,kick,rideBell,rideBow,snare,tomHigh,tomLow
china,99,1,0,0,0,0,0,0,0,0
crash,0,100,0,0,0,0,0,0,0,0
hiHatClosed,0,0,85,15,0,0,0,0,0,0
hiHatOpen,1,6,0,93,0,0,0,0,0,0
kick,0,0,0,0,80,1,0,0,0,19
rideBell,0,2,0,0,0,69,29,0,0,0
rideBow,0,0,0,0,0,1,99,0,0,0
snare,0,1,0,0,0,0,0,99,0,0
tomHigh,0,0,0,0,0,0,0,13,87,0
tomLow,0,13,0,0,8,1,0,0,3,75
,china,crash,hiHatClosed,hiHatOpen,kick,rideBell,rideBow,snare,tomHigh,tomLow
china,99,1,0,0,0,0,0,0,0,0
crash,0,100,0,0,0,0,0,0,0,0
hiHatClosed,0,0,85,15,0,0,0,0,0,0
hiHatOpen,1,6,0,93,0,0,0,0,0,0
kick,0,0,0,0,80,1,0,0,0,19
rideBell,0,2,0,0,0,69,29,0,0,0
rideBow,0,0,0,0,0,1,99,0,0,0
snare,0,1,0,0,0,0,0,99,0,0
tomHigh,0,0,0,0,0,0,0,13,87,0
tomLow,0,13,0,0,8,1,0,0,3,75
