--------------------------------------------
svm - no reduction


china,crash,hiHatClosed,hiHatOpen,kick,rideBell,rideBow,snare,tomHigh,tomLow
china,99,1,0,0,0,0,0,0,0,0
crash,0,100,0,0,0,0,0,0,0,0
hiHatClosed,0,0,85,15,0,0,0,0,0,0
hiHatOpen,1,9,0,90,0,0,0,0,0,0
kick,0,0,0,0,80,1,0,0,0,19
rideBell,3,2,0,0,0,71,24,0,0,0
rideBow,0,0,0,0,0,3,97,0,0,0
snare,0,1,0,0,0,0,0,99,0,0
tomHigh,0,0,0,0,0,0,0,13,87,0
tomLow,0,14,0,0,8,0,0,0,2,76
0.884
0
1 2 3 4 5 6 7 8 9 10 11 12 13 14 15 16 17 18 19 20 21 22 23 24 25 26 27 28 29 30 31 32 33 34 35 36 37 38 39 40 41 42 43 44 45 46 47 48


--------------------------------------------
RF - no reduction


china,crash,hiHatClosed,hiHatOpen,kick,rideBell,rideBow,snare,tomHigh,tomLow
china,99,1,0,0,0,0,0,0,0,0
crash,3,97,0,0,0,0,0,0,0,0
hiHatClosed,0,0,80,20,0,0,0,0,0,0
hiHatOpen,6,12,0,79,0,2,1,0,0,0
kick,0,0,0,0,70,0,0,0,0,30
rideBell,4,4,0,0,0,73,19,0,0,0
rideBow,0,4,0,0,0,15,81,0,0,0
snare,0,0,0,0,0,0,0,100,0,0
tomHigh,0,0,0,0,0,0,0,1,99,0
tomLow,0,0,0,0,8,0,0,0,5,87
0.865
0
1 2 3 4 5 6 7 8 9 10 11 12 13 14 15 16 17 18 19 20 21 22 23 24 25 26 27 28 29 30 31 32 33 34 35 36 37 38 39 40 41 42 43 44 45 46 47 48


--------------------------------------------
LR - no reduction


china,crash,hiHatClosed,hiHatOpen,kick,rideBell,rideBow,snare,tomHigh,tomLow
china,60,17,0,10,0,5,8,0,0,0
crash,4,92,0,0,0,0,4,0,0,0
hiHatClosed,0,0,63,36,0,0,1,0,0,0
hiHatOpen,0,0,0,88,0,0,12,0,0,0
kick,0,0,0,0,2,0,0,0,13,85
rideBell,0,0,0,0,0,30,70,0,0,0
rideBow,0,4,0,0,0,0,96,0,0,0
snare,0,0,0,1,0,0,0,62,37,0
tomHigh,0,0,0,0,0,0,0,2,48,50
tomLow,0,0,0,0,14,0,0,0,4,82
0.623
0
1 2 3 4 5 6 7 8 9 10 11 12 13 14 15 16 17 18 19 20 21 22 23 24 25 26 27 28 29 30 31 32 33 34 35 36 37 38 39 40 41 42 43 44 45 46 47 48


--------------------------------------------
NN - No reduction


china,crash,hiHatClosed,hiHatOpen,kick,rideBell,rideBow,snare,tomHigh,tomLow
china,100,0,0,0,0,0,0,0,0,0
crash,3,85,0,0,0,1,11,0,0,0
hiHatClosed,0,0,76,21,0,0,3,0,0,0
hiHatOpen,25,15,0,53,0,0,7,0,0,0
kick,1,0,0,0,73,0,0,0,0,26
rideBell,32,0,0,0,0,48,20,0,0,0
rideBow,8,0,0,0,0,6,86,0,0,0
snare,0,0,0,0,0,0,0,99,1,0
tomHigh,0,0,0,0,5,0,0,12,82,1
tomLow,14,0,0,0,2,0,0,0,8,76
0.778
0
1 2 3 4 5 6 7 8 9 10 11 12 13 14 15 16 17 18 19 20 21 22 23 24 25 26 27 28 29 30 31 32 33 34 35 36 37 38 39 40 41 42 43 44 45 46 47 48


--------------------------------------------
KNN - no redution


china,crash,hiHatClosed,hiHatOpen,kick,rideBell,rideBow,snare,tomHigh,tomLow
china,98,2,0,0,0,0,0,0,0,0
crash,1,99,0,0,0,0,0,0,0,0
hiHatClosed,0,0,96,4,0,0,0,0,0,0
hiHatOpen,0,2,0,98,0,0,0,0,0,0
kick,0,0,0,0,70,0,0,0,0,30
rideBell,5,0,0,0,0,30,65,0,0,0
rideBow,1,0,0,0,0,1,98,0,0,0
snare,0,0,0,0,0,0,0,100,0,0
tomHigh,0,0,0,0,0,0,0,34,64,2
tomLow,0,0,0,0,10,0,7,0,0,83
0.836
0
1 2 3 4 5 6 7 8 9 10 11 12 13 14 15 16 17 18 19 20 21 22 23 24 25 26 27 28 29 30 31 32 33 34 35 36 37 38 39 40 41 42 43 44 45 46 47 48


--------------------------------------------
RP - no reduction


china,crash,hiHatClosed,hiHatOpen,kick,rideBell,rideBow,snare,tomHigh,tomLow
china,64,20,0,0,0,0,0,16,0,0
crash,0,89,0,0,0,0,1,10,0,0
hiHatClosed,0,0,55,44,0,0,0,1,0,0
hiHatOpen,2,22,0,54,0,3,0,19,0,0
kick,0,0,0,0,63,0,0,0,7,30
rideBell,1,3,0,0,0,68,28,0,0,0
rideBow,0,2,0,0,0,9,89,0,0,0
snare,0,0,0,0,0,0,0,100,0,0
tomHigh,0,0,0,0,0,0,0,1,91,8
tomLow,0,0,0,0,10,0,0,0,0,90
0.763
0
1 2 3 4 5 6 7 8 9 10 11 12 13 14 15 16 17 18 19 20 21 22 23 24 25 26 27 28 29 30 31 32 33 34 35 36 37 38 39 40 41 42 43 44 45 46 47 48


--------------------------------------------
SVM


china,crash,hiHatClosed,hiHatOpen,kick,rideBell,rideBow,snare,tomHigh,tomLow
china,100,0,0,0,0,0,0,0,0,0
crash,0,100,0,0,0,0,0,0,0,0
hiHatClosed,0,0,82,18,0,0,0,0,0,0
hiHatOpen,1,10,0,89,0,0,0,0,0,0
kick,0,0,0,0,83,0,0,0,0,17
rideBell,1,0,0,0,0,76,23,0,0,0
rideBow,0,0,0,0,0,5,95,0,0,0
snare,0,1,0,0,0,0,0,99,0,0
tomHigh,0,0,0,0,0,0,0,14,86,0
tomLow,0,0,0,0,8,0,0,0,2,90
0.9
21 25 29 28 27 32 30 31 33 9 14 6 4 35 3
0 1 2 5 7 8 10 11 12 13 15 16 17 18 19 20 22 23 24 26 34 36 37 38 39 40 41 42 43 44 45 46 47 48


--------------------------------------------
RF


china,crash,hiHatClosed,hiHatOpen,kick,rideBell,rideBow,snare,tomHigh,tomLow
china,99,1,0,0,0,0,0,0,0,0
crash,0,100,0,0,0,0,0,0,0,0
hiHatClosed,0,0,74,26,0,0,0,0,0,0
hiHatOpen,0,4,0,96,0,0,0,0,0,0
kick,0,0,0,0,91,0,0,0,0,9
rideBell,1,0,0,0,0,92,7,0,0,0
rideBow,0,0,0,0,0,27,73,0,0,0
snare,0,0,0,0,0,0,0,100,0,0
tomHigh,0,0,0,0,0,0,0,0,100,0
tomLow,0,0,0,0,3,0,0,0,5,92
0.917
21 25 29 20 28 27 32 30 31 33 9 14 6 7 4 35 3
0 1 2 5 8 10 11 12 13 15 16 17 18 19 22 23 24 26 34 36 37 38 39 40 41 42 43 44 45 46 47 48


--------------------------------------------
LR


china,crash,hiHatClosed,hiHatOpen,kick,rideBell,rideBow,snare,tomHigh,tomLow
china,56,31,0,11,0,1,1,0,0,0
crash,5,94,0,0,0,1,0,0,0,0
hiHatClosed,0,0,73,26,0,0,0,0,1,0
hiHatOpen,0,0,8,92,0,0,0,0,0,0
kick,0,0,0,0,10,0,0,0,75,15
rideBell,1,0,0,0,0,46,53,0,0,0
rideBow,4,0,0,1,0,26,69,0,0,0
snare,0,0,0,0,0,0,0,82,18,0
tomHigh,0,0,0,0,3,0,0,11,86,0
tomLow,0,0,0,0,19,0,2,0,62,17
0.625
7
0 1 2 3 4 5 6 8 9 10 11 12 13 14 15 16 17 18 19 20 21 22 23 24 25 26 27 28 29 30 31 32 33 34 35 36 37 38 39 40 41 42 43 44 45 46 47 48


--------------------------------------------
NN


china,crash,hiHatClosed,hiHatOpen,kick,rideBell,rideBow,snare,tomHigh,tomLow
china,98,0,0,0,0,0,0,0,2,0
crash,0,98,0,0,0,0,2,0,0,0
hiHatClosed,0,0,86,14,0,0,0,0,0,0
hiHatOpen,6,3,0,72,0,1,18,0,0,0
kick,0,0,0,0,90,0,0,0,0,10
rideBell,10,0,0,0,0,68,22,0,0,0
rideBow,10,2,0,0,0,1,87,0,0,0
snare,0,0,1,0,1,0,0,98,0,0
tomHigh,0,0,0,0,0,0,0,36,62,2
tomLow,0,0,0,0,12,0,0,0,5,83
0.842
29 28 9 7 2
0 1 3 4 5 6 8 10 11 12 13 14 15 16 17 18 19 20 21 22 23 24 25 26 27 30 31 32 33 34 35 36 37 38 39 40 41 42 43 44 45 46 47 48


--------------------------------------------
KNN


china,crash,hiHatClosed,hiHatOpen,kick,rideBell,rideBow,snare,tomHigh,tomLow
china,99,1,0,0,0,0,0,0,0,0
crash,5,95,0,0,0,0,0,0,0,0
hiHatClosed,0,0,95,5,0,0,0,0,0,0
hiHatOpen,0,4,0,96,0,0,0,0,0,0
kick,0,0,0,0,96,0,0,0,0,4
rideBell,5,0,0,0,0,40,55,0,0,0
rideBow,6,0,0,0,0,1,93,0,0,0
snare,0,0,0,0,0,0,0,100,0,0
tomHigh,0,0,0,0,0,0,0,34,64,2
tomLow,0,0,0,0,26,0,0,0,0,74
0.852
29 28 32 30 9 6 7 2 3
0 1 4 5 8 10 11 12 13 14 15 16 17 18 19 20 21 22 23 24 25 26 27 31 33 34 35 36 37 38 39 40 41 42 43 44 45 46 47 48


--------------------------------------------
RP


china,crash,hiHatClosed,hiHatOpen,kick,rideBell,rideBow,snare,tomHigh,tomLow
china,60,29,0,10,0,0,0,1,0,0
crash,0,99,0,0,0,0,1,0,0,0
hiHatClosed,10,0,50,39,0,1,0,0,0,0
hiHatOpen,0,9,0,87,0,3,1,0,0,0
kick,0,0,0,0,76,0,0,0,6,18
rideBell,2,2,0,0,0,68,28,0,0,0
rideBow,2,0,0,0,0,9,89,0,0,0
snare,0,0,0,0,0,0,0,100,0,0
tomHigh,0,0,0,0,0,0,0,2,96,2
tomLow,0,0,0,0,19,0,0,0,3,78
0.803
21 25 29 20 28 27 32 30 31 33 9 14 6 7 4 35 3
0 1 2 5 8 10 11 12 13 15 16 17 18 19 22 23 24 26 34 36 37 38 39 40 41 42 43 44 45 46 47 48


--------------------------------------------
SVM


cymbal,hiHat,kick,snare,tom
cymbal,400,0,0,0,0
hiHat,19,181,0,0,0
kick,0,0,97,0,3
snare,1,0,0,99,0
tom,11,0,6,15,168
0.945
29 28 32 30 9 6 7 2 3
0 1 4 5 8 10 11 12 13 14 15 16 17 18 19 20 21 22 23 24 25 26 27 31 33 34 35 36 37 38 39 40 41 42 43 44 45 46 47 48


--------------------------------------------
RF


cymbal,hiHat,kick,snare,tom
cymbal,400,0,0,0,0
hiHat,23,177,0,0,0
kick,0,0,90,0,10
snare,0,0,0,100,0
tom,0,0,0,0,200
0.967
25 29 28 32 30 9 6 7 2 3
0 1 4 5 8 10 11 12 13 14 15 16 17 18 19 20 21 22 23 24 26 27 31 33 34 35 36 37 38 39 40 41 42 43 44 45 46 47 48


--------------------------------------------
NN


cymbal,hiHat,kick,snare,tom
cymbal,399,0,0,0,1
hiHat,29,171,0,0,0
kick,0,0,84,0,16
snare,0,0,0,99,1
tom,0,0,14,3,183
0.936
25 29 28 32 30 9 6 7 2 3
0 1 4 5 8 10 11 12 13 14 15 16 17 18 19 20 21 22 23 24 26 27 31 33 34 35 36 37 38 39 40 41 42 43 44 45 46 47 48


--------------------------------------------
KNN


cymbal,hiHat,kick,snare,tom
cymbal,400,0,0,0,0
hiHat,6,194,0,0,0
kick,0,0,72,0,28
snare,0,0,0,100,0
tom,0,0,9,31,160
0.926
9 7
0 1 2 3 4 5 6 8 10 11 12 13 14 15 16 17 18 19 20 21 22 23 24 25 26 27 28 29 30 31 32 33 34 35 36 37 38 39 40 41 42 43 44 45 46 47 48


--------------------------------------------
RP


cymbal,hiHat,kick,snare,tom
cymbal,393,6,0,1,0
hiHat,29,171,0,0,0
kick,0,0,76,0,24
snare,3,0,0,97,0
tom,0,0,19,1,180
0.917
25 29 28 32 30 9 6 7 35 2 3
0 1 4 5 8 10 11 12 13 14 15 16 17 18 19 20 21 22 23 24 26 27 31 33 34 36 37 38 39 40 41 42 43 44 45 46 47 48


--------------------------------------------
SVM


membrane,plate
membrane,399,1
plate,0,600
0.999
21 25 29 20 28 27 32 30 31 33 12 22 38 9 13 14 6 7 4 35 3 1
0 2 5 8 10 11 15 16 17 18 19 23 24 26 34 36 37 39 40 41 42 43 44 45 46 47 48


--------------------------------------------
RF


membrane,plate
membrane,400,0
plate,0,600
1
21 25 29 20 28 27 32 30 31 33 12 22 38 9 13 14 6 7 4 35 3 1
0 2 5 8 10 11 15 16 17 18 19 23 24 26 34 36 37 39 40 41 42 43 44 45 46 47 48


--------------------------------------------
NN


membrane,plate
membrane,400,0
plate,5,595
0.995
21 25 29 20 28 27 32 30 31 33 38 9 13 14 6 7 4 35 3
0 1 2 5 8 10 11 12 15 16 17 18 19 22 23 24 26 34 36 37 39 40 41 42 43 44 45 46 47 48


--------------------------------------------
KNN


membrane,plate
membrane,400,0
plate,0,600
1
21 25 29 20 28 27 32 30 31 33 38 9 13 14 6 7 4 35 3
0 1 2 5 8 10 11 12 15 16 17 18 19 22 23 24 26 34 36 37 39 40 41 42 43 44 45 46 47 48


--------------------------------------------
RP


membrane,plate
membrane,400,0
plate,18,582
0.982
21 25 29 20 28 27 32 30 31 33 38 9 14 6 7 4 35 3
0 1 2 5 8 10 11 12 13 15 16 17 18 19 22 23 24 26 34 36 37 39 40 41 42 43 44 45 46 47 48


