0.42857,0,-8.497,4,0,0.9217,10684,31.952,1.8649,19415,0.4501,6.8729e+05,4.8687e+06,0.020585,5.9545e-05,0.00010107,3.7385e-05,8.2498e-05,0.00074248,0.33401,0.26032,0.40464,-22.028,-3.7694,0.32209,-0.71158,-0.28177,-0.40286,-0.15223,-0.02491,-0.24375,0.089281,-0.069303,-0.0090418,-0.026732,43.559,0.19569,0.17934,0.18425,0.13113,0.14467,0.14743,0.11347,0.10693,0.082739,0.082379,0.077104,0.078021
0.22695,0.0091399,-4.053,138,0.5262,0.72222,8548.1,36.828,1.8769,14949,0.31063,1.0983e+07,1.9569e+06,0.28258,0.015496,0.017346,0.010282,0.011437,0.02278,0.4343,0.2977,0.19066,-22.748,-1.7427,-0.10227,-0.19647,-0.32605,-0.21877,-0.08853,0.1751,-0.22684,0.10869,0.062933,0.11601,0.070212,29.543,1.2196,0.15408,0.20025,0.1748,0.21606,0.18259,0.13608,0.12683,0.11672,0.11146,0.12553,0.076387
0.2177,0.0011307,-5.958,24,0.4374,0.88693,10313,11.44,1.8417,16516,0.37198,2.572e+06,3.1079e+06,0.086858,3.717e-05,0.00015895,0.0022801,0.0014408,0.015846,0.32327,0.39408,0.26289,-20.138,-3.2435,0.24092,-0.29946,-0.42566,-0.39603,-0.58431,-0.17832,-0.025016,-0.027375,0.11927,-0.11971,0.025579,15.902,0.29204,0.24889,0.155,0.14575,0.15062,0.11714,0.12259,0.080053,0.11629,0.092279,0.064956,0.054494
0.16622,0.0018437,-5.5526,56,0.47547,0.87422,10330,19.758,1.8877,17332,0.42286,2.4975e+06,3.6085e+06,0.057338,3.8737e-05,0.00080186,0.0019363,0.0022562,0.013718,0.30625,0.45658,0.21842,-20.719,-2.8857,0.97477,-0.40527,-0.44843,-0.53128,-0.71425,-0.18762,-0.21006,-0.086245,-0.12487,-0.072639,0.069998,17.461,0.25749,0.23533,0.14536,0.15313,0.12056,0.14993,0.14655,0.11341,0.1059,0.095821,0.075635,0.076363
0.23656,0.00051656,-6.5671,18,0.36743,0.85106,10106,13.328,1.8848,24948,0.328,2.7309e+06,4.7854e+06,0.063382,3.7537e-05,0.00016976,0.00067238,0.0010904,0.0055224,0.33078,0.35039,0.31134,-20.583,-2.5933,-0.28217,-0.96919,-0.55512,-0.50021,-0.523,-0.1529,-0.26129,-0.35341,0.22407,-0.29515,-0.058979,14.548,0.25926,0.18293,0.14525,0.15806,0.1265,0.12839,0.12086,0.11801,0.10614,0.093807,0.07426,0.079525
0.32946,0.00016056,-7.0566,16,0.18633,0.52967,7735.4,20.273,2.1918,46341,0.22156,7.8463e+06,4.0515e+06,-0.075138,7.5028e-05,0.0018817,0.0049717,0.0078352,0.028725,0.39504,0.35904,0.20243,-20.648,-2.1261,0.59315,-0.66124,-0.33979,-0.40238,-0.36055,-0.070497,-0.36104,-0.19945,-0.083822,-0.16234,-0.034341,9.92,0.52465,0.14457,0.14595,0.1433,0.12909,0.14272,0.12287,0.098783,0.09719,0.088372,0.073116,0.05663
0.17799,0.0009752,-6.1944,19,0.47785,0.84057,10097,30.173,1.8641,18541,0.35119,3.501e+06,3.3396e+06,0.091405,7.5788e-05,0.0011985,0.0010775,0.0085565,0.0099682,0.37064,0.40397,0.20451,-18.51,-3.869,0.14715,0.16517,-0.31826,-0.17415,-0.20568,-0.35522,-0.13154,-0.13436,-0.0072481,0.05108,-0.15423,13.353,0.18629,0.16073,0.14711,0.12273,0.13563,0.11712,0.093986,0.085235,0.088384,0.094348,0.061045,0.058527
0.22625,0.012953,-3.6994,236,0.52359,0.81449,9901.9,23.717,1.8633,20046,0.33314,4.1988e+06,3.1383e+06,0.11887,5.6185e-05,0.00021416,0.00023115,0.00039419,0.017212,0.40874,0.37351,0.19964,-18.292,-3.4872,0.49337,-0.11042,-0.35873,-0.19278,-0.39545,-0.3035,-0.21355,-0.06308,-0.095609,-0.030788,-0.27131,9.4107,0.20161,0.17451,0.13017,0.15595,0.12547,0.10995,0.12217,0.0985,0.094172,0.064888,0.066696,0.068672
0.2308,0.0081493,-4.1094,175,0.49639,0.74395,9180.3,5.5333,1.8714,22061,0.34304,8.3329e+06,3.0518e+06,0.24007,4.6191e-05,0.00053543,0.00087493,0.0033791,0.012413,0.33078,0.42223,0.22974,-20.294,-4.0807,-0.40122,0.41389,-0.3698,-0.081903,-0.39727,0.028216,-0.1392,0.080711,-0.11059,-0.093832,-0.052713,22.629,1.2174,0.93202,0.84501,0.17892,0.24118,0.1308,0.12699,0.074498,0.11973,0.064292,0.062986,0.053369
0.2318,0.0011714,-6.0214,30,0.48279,0.92643,10516,39.777,1.8148,19040,0.49156,1.1918e+06,3.8884e+06,0.069067,5.7568e-05,0.00098637,0.0026061,0.006817,0.013887,0.35302,0.39951,0.22312,-19.741,-3.0635,0.1151,-0.48101,-0.33688,-0.2087,-0.31441,-0.11757,-0.21169,-0.12912,-0.052237,-0.15034,0.095281,16.837,0.22674,0.21321,0.2066,0.14927,0.14441,0.1565,0.11276,0.1002,0.091172,0.08821,0.065818,0.08247
0.22218,0.0054091,-4.6879,78,0.58754,0.7304,8849.2,22.271,1.8732,17126,0.36198,1.1071e+07,2.0575e+06,0.2812,6.3418e-05,0.00032431,0.00032301,0.00079133,0.02165,0.32529,0.51506,0.1365,-18.183,-1.6763,-0.39007,-0.21058,-0.61639,-0.30053,-0.55252,-0.28871,-0.52957,-0.19,-0.39232,-0.30568,-0.11235,14.622,1.0162,0.30942,0.203,0.16117,0.13182,0.1168,0.14012,0.075794,0.10361,0.074794,0.062265,0.068834
0.2045,0.0072081,-4.239,265,0.49981,0.94299,10845,22.351,1.8773,13142,0.46375,2.9834e+05,3.8701e+06,-0.013622,1.5477e-05,8.7746e-05,0.0002494,0.00031596,0.0011644,0.27775,0.33691,0.38351,-20.413,-3.7462,0.43699,-0.74222,0.0044684,-0.41834,-0.074787,-0.11321,-0.17666,0.05876,-0.11719,0.069831,-0.0080084,24.227,0.23071,0.18365,0.12447,0.13066,0.11831,0.15579,0.085061,0.11038,0.0995,0.059023,0.055521,0.054922
0.13666,0.022593,-3.1789,415,0.54268,0.7257,9184.5,12.962,1.9326,25222,0.27284,7.433e+06,3.4997e+06,0.14847,3.7039e-05,0.00028649,0.0011026,0.0040197,0.031257,0.3853,0.35433,0.22367,-21.246,-2.4859,0.39985,-0.045644,-0.25524,-0.25582,-0.27481,-0.47173,-0.47993,-0.15302,0.20248,-0.18202,-0.22298,10.501,0.36128,0.24583,0.14691,0.14381,0.15935,0.12945,0.13263,0.11217,0.096225,0.081669,0.082709,0.063517
0.20093,0.025911,-3.0266,703,0.53446,0.78328,9691,14.901,1.8608,21995,0.33579,5.1825e+06,3.4274e+06,0.13369,6.811e-05,0.00062299,0.00033092,0.0013048,0.0098482,0.36235,0.39225,0.23322,-19.111,-4.3641,-0.14909,0.1312,-0.34409,0.087,-0.089703,-0.52006,-0.11809,-0.10384,0.24582,0.01058,-0.18195,12.42,0.34128,0.52239,0.14832,0.13472,0.19379,0.13047,0.12922,0.10359,0.11356,0.07257,0.096488,0.077199
0.2427,0.0057537,-4.4365,97,0.48609,0.83891,9793.3,36.278,1.8364,15962,0.38914,5.8757e+06,2.4008e+06,0.19902,6.567e-05,0.0011725,0.003643,0.010132,0.02076,0.40907,0.37239,0.18276,-20.039,-2.8699,-0.10945,-0.58636,-0.55784,-0.39485,-0.16941,-0.2153,-0.25133,0.05505,-0.064314,0.027198,-0.0041797,13.041,0.31504,0.22566,0.17066,0.14331,0.16336,0.14617,0.10831,0.12016,0.10746,0.072278,0.094989,0.078411
0.22969,0.0041535,-4.8363,106,0.52334,0.83542,9871.6,19.266,1.8425,19929,0.36692,4.4536e+06,3.1872e+06,0.21179,2.9511e-05,0.00031285,0.0010357,0.0032391,0.0058454,0.39532,0.31895,0.27526,-22.721,-3.7386,0.38905,-0.39401,-0.3611,-0.25852,-0.74686,0.07498,-0.07244,0.035994,-0.18053,-0.05438,0.15187,16.107,0.25152,0.24884,0.15936,0.15509,0.14783,0.21348,0.14109,0.12793,0.091902,0.091209,0.082236,0.066455
0.23427,0.0023216,-5.4367,51,0.53325,0.88141,10348,15.343,1.8405,16231,0.40754,2.3289e+06,3.0881e+06,0.068036,4.4501e-05,0.00027036,0.00080129,0.0027998,0.0088167,0.34694,0.32354,0.31679,-19.75,-3.1245,0.46757,-0.31237,-0.43465,-0.47447,-0.64447,-0.18503,-0.20231,-0.15663,-0.10108,-0.13653,0.024666,19.18,0.26977,0.15291,0.16772,0.12748,0.19913,0.14619,0.13583,0.10611,0.11469,0.095297,0.10057,0.058412
0.23274,0.016708,-3.4543,257,0.52857,0.86932,10247,7.6361,1.8397,13727,0.44425,3.2532e+06,2.3507e+06,0.10627,3.2641e-05,0.00082195,0.00094488,0.0017841,0.016246,0.49913,0.33801,0.14303,-19.506,-3.0218,0.76662,-0.53641,-0.61618,-0.42636,-0.43784,-0.26397,-0.193,-0.22127,-0.10746,-0.12802,-0.090214,23.299,0.18691,0.19152,0.14761,0.14678,0.1536,0.12288,0.12459,0.10478,0.090973,0.074214,0.090065,0.064112
0.20775,0.0051674,-4.5415,218,0.48485,0.58234,6935.8,8.9278,2.2009,29709,0.28871,1.3957e+07,4.6647e+06,0.45425,5.7389e-05,0.00018469,0.00029642,0.00065588,0.0056325,0.33891,0.37663,0.27764,-25.57,-1.0326,-0.5272,-0.68362,-0.41728,-0.30178,-0.23318,-0.17002,-0.11781,-0.050221,-0.056204,-0.046248,-0.046877,20.627,5.9041,0.44601,0.27836,0.16011,0.12838,0.11416,0.12082,0.10505,0.099831,0.09011,0.075973,0.069862
0.24412,0.0074873,-4.2312,179,0.51511,0.89007,10340,24.069,1.8331,19089,0.43105,2.203e+06,3.9326e+06,0.10476,3.0414e-05,5.0592e-05,3.0302e-05,6.2915e-05,0.0013535,0.31589,0.36351,0.31907,-21.731,-3.6271,0.071898,-0.76558,-0.85938,-0.52779,-0.4276,0.18599,-0.066723,0.06617,0.10949,0.10938,0.063035,24.578,0.17464,0.18635,0.16733,0.22834,0.12396,0.15268,0.12101,0.090576,0.10827,0.074364,0.080384,0.065715
