0.42857,0,-8.497,4,0,0.90742,10612,58.128,1.8833,19415,0.4501,7.6515e+05,1.8869e+07,0.031079,9.5743e-05,0.00016761,5.5231e-05,0.000109,0.00073646,0.32794,0.26608,0.40481,-22.028,-3.7694,0.32209,-0.71158,-0.28177,-0.40286,-0.15223,-0.02491,-0.24375,0.089281,-0.069303,-0.0090418,-0.026732,43.559,0.19569,0.17934,0.18425,0.13113,0.14467,0.14743,0.11347,0.10693,0.082739,0.082379,0.077104,0.078021
0.22695,0,-4.053,138,0,0.70171,8360.5,34.128,1.8892,14949,0.31063,1.1457e+07,8.3728e+06,0.26918,0.015094,0.016952,0.0093794,0.011508,0.021124,0.42982,0.30642,0.1897,-22.748,-1.7427,-0.10227,-0.19647,-0.32605,-0.21877,-0.08853,0.1751,-0.22684,0.10869,0.062933,0.11601,0.070212,29.543,1.2196,0.15408,0.20025,0.1748,0.21606,0.18259,0.13608,0.12683,0.11672,0.11146,0.12553,0.076387
0.2177,0,-5.958,24,0,0.86568,10181,13.235,1.8534,16516,0.37198,3.1205e+06,1.3074e+07,0.093927,3.7441e-05,0.00017889,0.0023327,0.001269,0.016127,0.32424,0.39371,0.26211,-20.138,-3.2435,0.24092,-0.29946,-0.42566,-0.39603,-0.58431,-0.17832,-0.025016,-0.027375,0.11927,-0.11971,0.025579,15.902,0.29204,0.24889,0.155,0.14575,0.15062,0.11714,0.12259,0.080053,0.11629,0.092279,0.064956,0.054494
0.16622,0,-5.5526,56,0,0.84664,10166,44.926,1.9148,17332,0.42286,3.1517e+06,1.4531e+07,0.058784,4.2379e-05,0.00063049,0.0017104,0.001838,0.01256,0.32486,0.43726,0.2211,-20.719,-2.8857,0.97477,-0.40527,-0.44843,-0.53128,-0.71425,-0.18762,-0.21006,-0.086245,-0.12487,-0.072639,0.069998,17.461,0.25749,0.23533,0.14536,0.15313,0.12056,0.14993,0.14655,0.11341,0.1059,0.095821,0.075635,0.076363
0.23656,0,-6.5671,18,0,0.84198,10056,56.752,1.8916,24948,0.328,2.9747e+06,1.9003e+07,0.061881,4.154e-05,0.00020961,0.00077764,0.0011983,0.0051618,0.33087,0.3545,0.30723,-20.583,-2.5933,-0.28217,-0.96919,-0.55512,-0.50021,-0.523,-0.1529,-0.26129,-0.35341,0.22407,-0.29515,-0.058979,14.548,0.25926,0.18293,0.14525,0.15806,0.1265,0.12839,0.12086,0.11801,0.10614,0.093807,0.07426,0.079525
0.32946,0,-7.0566,16,0,0.48576,7380.4,72.46,2.2534,46341,0.22156,7.949e+06,1.681e+07,-0.079104,7.2799e-05,0.00197,0.0049246,0.0073914,0.027989,0.39163,0.35654,0.20948,-20.648,-2.1261,0.59315,-0.66124,-0.33979,-0.40238,-0.36055,-0.070497,-0.36104,-0.19945,-0.083822,-0.16234,-0.034341,9.92,0.52465,0.14457,0.14595,0.1433,0.12909,0.14272,0.12287,0.098783,0.09719,0.088372,0.073116,0.05663
0.17799,0,-6.1944,19,0,0.80272,9835.1,11.053,1.8876,18541,0.35119,4.5904e+06,1.4567e+07,0.10063,8.3878e-05,0.0012684,0.0011062,0.0094169,0.011826,0.37132,0.40441,0.20057,-18.51,-3.869,0.14715,0.16517,-0.31826,-0.17415,-0.20568,-0.35522,-0.13154,-0.13436,-0.0072481,0.05108,-0.15423,13.353,0.18629,0.16073,0.14711,0.12273,0.13563,0.11712,0.093986,0.085235,0.088384,0.094348,0.061045,0.058527
0.22625,0,-3.6994,236,0,0.80005,9829.1,9.3188,1.8742,20046,0.33314,4.5934e+06,1.2722e+07,0.114,5.644e-05,0.0002209,0.00031141,0.00041301,0.018748,0.40648,0.36712,0.20666,-18.292,-3.4872,0.49337,-0.11042,-0.35873,-0.19278,-0.39545,-0.3035,-0.21355,-0.06308,-0.095609,-0.030788,-0.27131,9.4107,0.20161,0.17451,0.13017,0.15595,0.12547,0.10995,0.12217,0.0985,0.094172,0.064888,0.066696,0.068672
0.2308,0,-4.1094,175,0,0.70627,8879.6,68.248,1.8944,22061,0.34304,9.6778e+06,1.321e+07,0.24013,4.4605e-05,0.00054433,0.0010716,0.0035603,0.012324,0.32788,0.42101,0.23356,-20.294,-4.0807,-0.40122,0.41389,-0.3698,-0.081903,-0.39727,0.028216,-0.1392,0.080711,-0.11059,-0.093832,-0.052713,22.629,1.2174,0.93202,0.84501,0.17892,0.24118,0.1308,0.12699,0.074498,0.11973,0.064292,0.062986,0.053369
0.2318,0,-6.0214,30,0,0.91875,10477,34.09,1.8193,19040,0.49156,1.2979e+06,1.6474e+07,0.071843,5.5266e-05,0.0010347,0.0024425,0.0071125,0.013562,0.34509,0.40251,0.22819,-19.741,-3.0635,0.1151,-0.48101,-0.33688,-0.2087,-0.31441,-0.11757,-0.21169,-0.12912,-0.052237,-0.15034,0.095281,16.837,0.22674,0.21321,0.2066,0.14927,0.14441,0.1565,0.11276,0.1002,0.091172,0.08821,0.065818,0.08247
0.22218,0,-4.6879,78,0,0.695,8528.7,18.199,1.8903,17126,0.36198,1.2837e+07,8.9093e+06,0.27057,5.3708e-05,0.00030687,0.00033245,0.00079779,0.018684,0.35579,0.48816,0.13587,-18.183,-1.6763,-0.39007,-0.21058,-0.61639,-0.30053,-0.55252,-0.28871,-0.52957,-0.19,-0.39232,-0.30568,-0.11235,14.622,1.0162,0.30942,0.203,0.16117,0.13182,0.1168,0.14012,0.075794,0.10361,0.074794,0.062265,0.068834
0.2045,0,-4.239,265,0,0.9329,10835,15.415,1.8886,13142,0.46375,3.098e+05,1.7111e+07,-0.0076338,1.6759e-05,0.00011129,0.00030722,0.00041501,0.001397,0.27181,0.34793,0.37801,-20.413,-3.7462,0.43699,-0.74222,0.0044684,-0.41834,-0.074787,-0.11321,-0.17666,0.05876,-0.11719,0.069831,-0.0080084,24.227,0.23071,0.18365,0.12447,0.13066,0.11831,0.15579,0.085061,0.11038,0.0995,0.059023,0.055521,0.054922
0.13666,0.0058642,-3.1789,415,0.14086,0.70383,9037.9,16.603,1.9476,25222,0.27284,8.2022e+06,1.4797e+07,0.13747,4.2343e-05,0.00033536,0.0011199,0.0041854,0.031979,0.38601,0.35206,0.22427,-21.246,-2.4859,0.39985,-0.045644,-0.25524,-0.25582,-0.27481,-0.47173,-0.47993,-0.15302,0.20248,-0.18202,-0.22298,10.501,0.36128,0.24583,0.14691,0.14381,0.15935,0.12945,0.13263,0.11217,0.096225,0.081669,0.082709,0.063517
0.20093,0.012305,-3.0266,703,0.25381,0.75106,9473.8,5.5863,1.8767,21995,0.33579,6.1359e+06,1.4411e+07,0.13148,7.4581e-05,0.00061789,0.00035131,0.0013499,0.010224,0.3641,0.39585,0.22744,-19.111,-4.3641,-0.14909,0.1312,-0.34409,0.087,-0.089703,-0.52006,-0.11809,-0.10384,0.24582,0.01058,-0.18195,12.42,0.34128,0.52239,0.14832,0.13472,0.19379,0.13047,0.12922,0.10359,0.11356,0.07257,0.096488,0.077199
0.2427,0,-4.4365,97,0,0.8065,9534,22.976,1.8561,15962,0.38914,7.2499e+06,1.04e+07,0.21343,6.4883e-05,0.0012993,0.0033496,0.0082638,0.018816,0.42591,0.36,0.1823,-20.039,-2.8699,-0.10945,-0.58636,-0.55784,-0.39485,-0.16941,-0.2153,-0.25133,0.05505,-0.064314,0.027198,-0.0041797,13.041,0.31504,0.22566,0.17066,0.14331,0.16336,0.14617,0.10831,0.12016,0.10746,0.072278,0.094989,0.078411
0.22969,0,-4.8363,106,0,0.83133,9847,8.7686,1.8526,19929,0.36692,4.6534e+06,1.2933e+07,0.21134,2.876e-05,0.0003222,0.0010746,0.0027785,0.0058072,0.38766,0.32522,0.27711,-22.721,-3.7386,0.38905,-0.39401,-0.3611,-0.25852,-0.74686,0.07498,-0.07244,0.035994,-0.18053,-0.05438,0.15187,16.107,0.25152,0.24884,0.15936,0.15509,0.14783,0.21348,0.14109,0.12793,0.091902,0.091209,0.082236,0.066455
0.23427,0,-5.4367,51,0,0.85594,10212,13.918,1.8545,16231,0.40754,2.8241e+06,1.2745e+07,0.069301,5.4331e-05,0.00024432,0.00090924,0.0024659,0.008635,0.3326,0.32623,0.32887,-19.75,-3.1245,0.46757,-0.31237,-0.43465,-0.47447,-0.64447,-0.18503,-0.20231,-0.15663,-0.10108,-0.13653,0.024666,19.18,0.26977,0.15291,0.16772,0.12748,0.19913,0.14619,0.13583,0.10611,0.11469,0.095297,0.10057,0.058412
0.23274,0,-3.4543,257,0,0.83491,10032,34.638,1.8661,13727,0.44425,4.1465e+06,9.0241e+06,0.11217,3.4875e-05,0.00074411,0.00083616,0.0021843,0.01568,0.50291,0.33691,0.14069,-19.506,-3.0218,0.76662,-0.53641,-0.61618,-0.42636,-0.43784,-0.26397,-0.193,-0.22127,-0.10746,-0.12802,-0.090214,23.299,0.18691,0.19152,0.14761,0.14678,0.1536,0.12288,0.12459,0.10478,0.090973,0.074214,0.090065,0.064112
0.20775,0,-4.5415,218,0,0.56761,6805.4,5.0121,2.2305,29709,0.28871,1.4696e+07,1.903e+07,0.46028,4.63e-05,0.00015003,0.00024394,0.00054355,0.0046144,0.32726,0.39092,0.27622,-25.57,-1.0326,-0.5272,-0.68362,-0.41728,-0.30178,-0.23318,-0.17002,-0.11781,-0.050221,-0.056204,-0.046248,-0.046877,20.627,5.9041,0.44601,0.27836,0.16011,0.12838,0.11416,0.12082,0.10505,0.099831,0.09011,0.075973,0.069862
0.24412,0,-4.2312,179,0,0.88319,10315,14.214,1.8393,19089,0.43105,2.3481e+06,1.6935e+07,0.10452,5.3748e-05,9.2636e-05,5.541e-05,0.00010705,0.0015877,0.32166,0.36944,0.30701,-21.731,-3.6271,0.071898,-0.76558,-0.85938,-0.52779,-0.4276,0.18599,-0.066723,0.06617,0.10949,0.10938,0.063035,24.578,0.17464,0.18635,0.16733,0.22834,0.12396,0.15268,0.12101,0.090576,0.10827,0.074364,0.080384,0.065715
